Containers:
  [+] MainContainer:
   |            ID: 0x0000000000000000
   |        Bounds: IsValid=false, Min=(X=0.000 Y=0.000 Z=0.000), Max=(X=0.000 Y=0.000 Z=0.000)
   |     Transform: 0.000000,0.000000,0.000000|0.000000,0.000000,-0.000000|1.000000,1.000000,1.000000
   |     Container: /Game/ThirdPerson/Maps/ThirdPersonMap
   |  ActorDescs:
   |      - Guid:017394CF45B3BF2BCF7AB382975F2606 Class:StaticMeshActor Name:StaticMeshActor_39 SpatiallyLoaded:true Bounds:IsValid=true, Min=(X=1400.000 Y=1500.000 Z=0.000), Max=(X=1800.000 Y=1700.000 Z=100.000) RuntimeGrid:None EditorOnly:false LevelBoundsRelevant:true HLODRelevant:true FolderPath:Block01 FolderGuid:98087B8444A89373CC4763B3845E270A Parent:00000000000000000000000000000000
   |      - Guid:0870CC704F80A8D5DF802EAC5E048723 Class:StaticMeshActor Name:StaticMeshActor_45 SpatiallyLoaded:true Bounds:IsValid=true, Min=(X=1300.000 Y=2600.000 Z=0.000), Max=(X=2500.000 Y=2900.000 Z=200.000) RuntimeGrid:None EditorOnly:false LevelBoundsRelevant:true HLODRelevant:true FolderPath:Block02 FolderGuid:5DDF0B274F9C8B2C5DABA1999B167516 Parent:00000000000000000000000000000000
   |      - Guid:0CECA80C4C6B6D29BBBB0B942164B132 Class:WolfCharacter Name:BP_Wolf_C_UAID_B42E99BACA7D738801_1354605015 SpatiallyLoaded:true Bounds:IsValid=true, Min=(X=434.723 Y=476.000 Z=-3.051), Max=(X=591.129 Y=544.000 Z=176.000) RuntimeGrid:None EditorOnly:false LevelBoundsRelevant:true HLODRelevant:false FolderPath:None FolderGuid:00000000000000000000000000000000 Parent:00000000000000000000000000000000
   |      - Guid:174DF71143EA367D14F3838C26CC06DF Class:SkyLight Name:SkyLight_0 SpatiallyLoaded:false Bounds:IsValid=true, Min=(X=0.000 Y=0.000 Z=690.000), Max=(X=0.000 Y=0.000 Z=690.000) RuntimeGrid:None EditorOnly:false LevelBoundsRelevant:false HLODRelevant:false FolderPath:Lighting FolderGuid:08A10B054C95868C663DE39EE4343813 Parent:00000000000000000000000000000000
   |      - Guid:22043D904138D0E50DB05FB74FCA2289 Class:StaticMeshActor Name:StaticMeshActor_60 SpatiallyLoaded:true Bounds:IsValid=true, Min=(X=2000.000 Y=500.000 Z=0.000), Max=(X=2200.000 Y=700.000 Z=100.000) RuntimeGrid:None EditorOnly:false LevelBoundsRelevant:true HLODRelevant:true FolderPath:Cylinder FolderGuid:ECA4956E419DA4E5BAB7F389537BCB14 Parent:00000000000000000000000000000000
   |      - Guid:243A2084428544D88534E990D8BA5B83 Class:StaticMeshActor Name:StaticMeshActor_38 SpatiallyLoaded:true Bounds:IsValid=true, Min=(X=1200.000 Y=1700.000 Z=0.000), Max=(X=1800.000 Y=2200.000 Z=200.000) RuntimeGrid:None EditorOnly:false LevelBoundsRelevant:true HLODRelevant:true FolderPath:Block01 FolderGuid:98087B8444A89373CC4763B3845E270A Parent:00000000000000000000000000000000
   |      - Guid:3E0D0C7A4D8FFA7CE31DB8AA2B2D1292 Class:StaticMeshActor Name:StaticMeshActor_57 SpatiallyLoaded:true Bounds:IsValid=true, Min=(X=1200.000 Y=2200.000 Z=0.000), Max=(X=1300.000 Y=2300.000 Z=200.000) RuntimeGrid:None EditorOnly:false LevelBoundsRelevant:true HLODRelevant:true FolderPath:Block01 FolderGuid:98087B8444A89373CC4763B3845E270A Parent:00000000000000000000000000000000
   |      - Guid:4F7B735A44E12B4B031927A9FC21C460 Class:VolumetricCloud Name:VolumetricCloud_1 SpatiallyLoaded:false Bounds:IsValid=true, Min=(X=0.000 Y=0.000 Z=820.000), Max=(X=0.000 Y=0.000 Z=820.000) RuntimeGrid:None EditorOnly:false LevelBoundsRelevant:false HLODRelevant:false FolderPath:Lighting FolderGuid:08A10B054C95868C663DE39EE4343813 Parent:00000000000000000000000000000000
   |      - Guid:55BB2E2F4AFA453E1F1285A3ADC7186D Class:StaticMeshActor Name:StaticMeshActor_58 SpatiallyLoaded:true Bounds:IsValid=true, Min=(X=2200.000 Y=700.000 Z=0.000), Max=(X=2400.000 Y=900.000 Z=100.000) RuntimeGrid:None EditorOnly:false LevelBoundsRelevant:true HLODRelevant:true FolderPath:Cylinder FolderGuid:ECA4956E419DA4E5BAB7F389537BCB14 Parent:00000000000000000000000000000000
   |      - Guid:5C7C5C40408F48C386D06CA03AB130C2 Class:StaticMeshActor Name:StaticMeshActor_UAID_A4AE111137DC5EFB00_1594956423 SpatiallyLoaded:true Bounds:IsValid=true, Min=(X=-1638400.000 Y=-1638400.000 Z=-1638400.000), Max=(X=1638400.000 Y=1638400.000 Z=1638400.000) RuntimeGrid:None EditorOnly:false LevelBoundsRelevant:true HLODRelevant:true FolderPath:Lighting FolderGuid:08A10B054C95868C663DE39EE4343813 Parent:00000000000000000000000000000000
   |      - Guid:664A87DA48B6EE38C0ACEA9AEDBA4BA0 Class:TextRenderActor Name:TextRenderActor_1 SpatiallyLoaded:true Bounds:IsValid=true, Min=(X=-0.100 Y=1100.000 Z=65.013), Max=(X=-0.100 Y=2392.308 Z=215.013) RuntimeGrid:None EditorOnly:false LevelBoundsRelevant:true HLODRelevant:false FolderPath:None FolderGuid:00000000000000000000000000000000 Parent:00000000000000000000000000000000
   |      - Guid:723128A2477074C68D9A5EA484DF76A8 Class:StaticMeshActor Name:StaticMeshActor_46 SpatiallyLoaded:true Bounds:IsValid=true, Min=(X=1800.000 Y=1500.000 Z=0.000), Max=(X=2000.000 Y=2200.000 Z=100.000) RuntimeGrid:None EditorOnly:false LevelBoundsRelevant:true HLODRelevant:true FolderPath:Block01 FolderGuid:98087B8444A89373CC4763B3845E270A Parent:00000000000000000000000000000000
   |      - Guid:788903924598EC8109F9709A8AB41C0D Class:WorldDataLayers Name:WorldDataLayers SpatiallyLoaded:false Bounds:IsValid=true, Min=(X=0.000 Y=0.000 Z=0.000), Max=(X=0.000 Y=0.000 Z=0.000) RuntimeGrid:None EditorOnly:false LevelBoundsRelevant:false HLODRelevant:false FolderPath:None FolderGuid:00000000000000000000000000000000 Parent:00000000000000000000000000000000
   |      - Guid:830FF81C457CA01C97438B95CD9DF038 Class:StaticMeshActor Name:StaticMeshActor_34 SpatiallyLoaded:true Bounds:IsValid=true, Min=(X=1100.000 Y=2000.000 Z=0.013), Max=(X=1200.000 Y=2100.000 Z=100.013) RuntimeGrid:None EditorOnly:false LevelBoundsRelevant:true HLODRelevant:false FolderPath:None FolderGuid:00000000000000000000000000000000 Parent:00000000000000000000000000000000
   |      - Guid:84A6C2C04177158166E2439E0CBAE730 Class:StaticMeshActor Name:StaticMeshActor_35 SpatiallyLoaded:true Bounds:IsValid=true, Min=(X=1300.000 Y=600.000 Z=0.000), Max=(X=1700.000 Y=800.000 Z=30.000) RuntimeGrid:None EditorOnly:false LevelBoundsRelevant:true HLODRelevant:true FolderPath:None FolderGuid:00000000000000000000000000000000 Parent:00000000000000000000000000000000
   |      - Guid:89804A6243C4BD878CD328A15A204CB5 Class:DeerCharacter Name:BP_Deer_C_UAID_B42E99BACA7D6C8801_1865143783 SpatiallyLoaded:true Bounds:IsValid=true, Min=(X=2065.788 Y=1632.731 Z=-0.343), Max=(X=2272.816 Y=1848.313 Z=198.300) RuntimeGrid:None EditorOnly:false LevelBoundsRelevant:true HLODRelevant:false FolderPath:None FolderGuid:00000000000000000000000000000000 Parent:00000000000000000000000000000000
   |      - Guid:901C748940C0D4AB214A8B8BF7D39AEC Class:StaticMeshActor Name:StaticMeshActor_59 SpatiallyLoaded:true Bounds:IsValid=true, Min=(X=2000.000 Y=700.000 Z=0.000), Max=(X=2200.000 Y=900.000 Z=100.000) RuntimeGrid:None EditorOnly:false LevelBoundsRelevant:true HLODRelevant:true FolderPath:Cylinder FolderGuid:ECA4956E419DA4E5BAB7F389537BCB14 Parent:00000000000000000000000000000000
   |      - Guid:96C16AF946CFF8929C47A09CAE7CD832 Class:StaticMeshActor Name:StaticMeshActor_48 SpatiallyLoaded:true Bounds:IsValid=true, Min=(X=1800.000 Y=2100.000 Z=100.000), Max=(X=2000.000 Y=2200.000 Z=200.000) RuntimeGrid:None EditorOnly:false LevelBoundsRelevant:true HLODRelevant:true FolderPath:Block01 FolderGuid:98087B8444A89373CC4763B3845E270A Parent:00000000000000000000000000000000
   |      - Guid:97625685428ED89E06818B996F1A508E Class:StaticMeshActor Name:StaticMeshActor_53 SpatiallyLoaded:true Bounds:IsValid=true, Min=(X=1500.000 Y=2200.000 Z=0.000), Max=(X=1600.000 Y=2300.000 Z=200.000) RuntimeGrid:None EditorOnly:false LevelBoundsRelevant:true HLODRelevant:true FolderPath:Block01 FolderGuid:98087B8444A89373CC4763B3845E270A Parent:00000000000000000000000000000000
   |      - Guid:9A8590F64719696F576D32BEA8B1AF88 Class:StaticMeshActor Name:StaticMeshActor_50 SpatiallyLoaded:true Bounds:IsValid=true, Min=(X=2500.000 Y=2800.000 Z=0.000), Max=(X=2600.000 Y=2900.000 Z=200.000) RuntimeGrid:None EditorOnly:false LevelBoundsRelevant:true HLODRelevant:true FolderPath:Block02 FolderGuid:5DDF0B274F9C8B2C5DABA1999B167516 Parent:00000000000000000000000000000000
   |      - Guid:9FFE6665469AE829D82050A8B1F67178 Class:DirectionalLight Name:DirectionalLight_1 SpatiallyLoaded:false Bounds:IsValid=true, Min=(X=-1048576.000 Y=-1048576.000 Z=-1048576.000), Max=(X=1048576.000 Y=1048576.000 Z=1048576.000) RuntimeGrid:None EditorOnly:false LevelBoundsRelevant:false HLODRelevant:false FolderPath:Lighting FolderGuid:08A10B054C95868C663DE39EE4343813 Parent:00000000000000000000000000000000
   |      - Guid:A0E11A6249EC0F7EE34F5588D241A10F Class:EQSTestingPawn Name:eqsTester_C_UAID_B42E99BACA7D078A01_1713257121 SpatiallyLoaded:true Bounds:IsValid=true, Min=(X=836.000 Y=1396.000 Z=-8.000), Max=(X=904.000 Y=1464.000 Z=168.000) RuntimeGrid:None EditorOnly:false LevelBoundsRelevant:true HLODRelevant:false FolderPath:None FolderGuid:00000000000000000000000000000000 Parent:00000000000000000000000000000000
   |      - Guid:A25F61BD4F2EE2C7409611810AC3BAD4 Class:StaticMeshActor Name:StaticMeshActor_52 SpatiallyLoaded:true Bounds:IsValid=true, Min=(X=2500.000 Y=2700.000 Z=0.000), Max=(X=2600.000 Y=2800.000 Z=200.000) RuntimeGrid:None EditorOnly:false LevelBoundsRelevant:true HLODRelevant:true FolderPath:Block02 FolderGuid:5DDF0B274F9C8B2C5DABA1999B167516 Parent:00000000000000000000000000000000
   |      - Guid:A7FB847A4A1DACD12053998C0C82FF9C Class:StaticMeshActor Name:StaticMeshActor_55 SpatiallyLoaded:true Bounds:IsValid=true, Min=(X=110.000 Y=2800.000 Z=0.000), Max=(X=210.000 Y=2900.000 Z=200.000) RuntimeGrid:None EditorOnly:false LevelBoundsRelevant:true HLODRelevant:true FolderPath:Block03 FolderGuid:8CD3949449A9ED1D3F209CA69A64B60F Parent:00000000000000000000000000000000
   |      - Guid:A85A7AD046A0462D176E6889992C1216 Class:PostProcessVolume Name:PostProcessVolume_0 SpatiallyLoaded:false Bounds:IsValid=true, Min=(X=0.000 Y=0.000 Z=400.000), Max=(X=200.000 Y=200.000 Z=600.000) RuntimeGrid:None EditorOnly:false LevelBoundsRelevant:false HLODRelevant:false FolderPath:Lighting FolderGuid:08A10B054C95868C663DE39EE4343813 Parent:00000000000000000000000000000000
   |      - Guid:AA857C9F436500D6ED8E03A5806DCE50 Class:StaticMeshActor Name:StaticMeshActor_44 SpatiallyLoaded:true Bounds:IsValid=true, Min=(X=1300.000 Y=2200.000 Z=0.000), Max=(X=1500.000 Y=2300.000 Z=200.000) RuntimeGrid:None EditorOnly:false LevelBoundsRelevant:true HLODRelevant:true FolderPath:Block01 FolderGuid:98087B8444A89373CC4763B3845E270A Parent:00000000000000000000000000000000
   |      - Guid:AE8AA01A4DE576B371C05FA79B282659 Class:StaticMeshActor Name:StaticMeshActor_40 SpatiallyLoaded:true Bounds:IsValid=true, Min=(X=992.077 Y=2692.077 Z=0.013), Max=(X=1107.923 Y=2807.923 Z=100.013) RuntimeGrid:None EditorOnly:false LevelBoundsRelevant:true HLODRelevant:false FolderPath:None FolderGuid:00000000000000000000000000000000 Parent:00000000000000000000000000000000
   |      - Guid:B23C247D4E34A96052E563A19E79FA75 Class:ExponentialHeightFog Name:ExponentialHeightFog_1 SpatiallyLoaded:false Bounds:IsValid=true, Min=(X=-5600.000 Y=-50.000 Z=-6850.000), Max=(X=-5600.000 Y=-50.000 Z=-6850.000) RuntimeGrid:None EditorOnly:false LevelBoundsRelevant:false HLODRelevant:false FolderPath:Lighting FolderGuid:08A10B054C95868C663DE39EE4343813 Parent:00000000000000000000000000000000
   |      - Guid:B9527F18436B4C90019C7C8AF398144B Class:StaticMeshActor Name:StaticMeshActor_41 SpatiallyLoaded:true Bounds:IsValid=true, Min=(X=481.699 Y=2271.699 Z=0.013), Max=(X=618.301 Y=2408.301 Z=100.013) RuntimeGrid:None EditorOnly:false LevelBoundsRelevant:true HLODRelevant:false FolderPath:None FolderGuid:00000000000000000000000000000000 Parent:00000000000000000000000000000000
   |      - Guid:BC42D9B9467E38655AFC6DB667A61ECA Class:StaticMeshActor Name:StaticMeshActor_49 SpatiallyLoaded:true Bounds:IsValid=true, Min=(X=210.000 Y=2600.000 Z=0.000), Max=(X=510.000 Y=2900.000 Z=200.000) RuntimeGrid:None EditorOnly:false LevelBoundsRelevant:true HLODRelevant:true FolderPath:Block03 FolderGuid:8CD3949449A9ED1D3F209CA69A64B60F Parent:00000000000000000000000000000000
   |      - Guid:BD430F5245E33ECC56F7628FBABC5D84 Class:StaticMeshActor Name:StaticMeshActor_33 SpatiallyLoaded:true Bounds:IsValid=true, Min=(X=0.000 Y=0.000 Z=-50.000), Max=(X=3000.000 Y=3500.000 Z=0.000) RuntimeGrid:None EditorOnly:false LevelBoundsRelevant:true HLODRelevant:true FolderPath:Playground FolderGuid:8CD33C9A4E75AD59B95486AC740693D6 Parent:00000000000000000000000000000000
   |      - Guid:BFB671284CA12B07A4565ABBE4C17B4C Class:StaticMeshActor Name:StaticMeshActor_51 SpatiallyLoaded:true Bounds:IsValid=true, Min=(X=2500.000 Y=2600.000 Z=0.000), Max=(X=2600.000 Y=2700.000 Z=200.000) RuntimeGrid:None EditorOnly:false LevelBoundsRelevant:true HLODRelevant:true FolderPath:Block02 FolderGuid:5DDF0B274F9C8B2C5DABA1999B167516 Parent:00000000000000000000000000000000
   |      - Guid:C726A3284B806D4C379405885740B688 Class:PlayerStart Name:PlayerStart_0 SpatiallyLoaded:false Bounds:IsValid=true, Min=(X=900.000 Y=1120.000 Z=0.013), Max=(X=980.000 Y=1200.000 Z=184.013) RuntimeGrid:None EditorOnly:false LevelBoundsRelevant:true HLODRelevant:false FolderPath:None FolderGuid:00000000000000000000000000000000 Parent:00000000000000000000000000000000
   |      - Guid:C752FDB9451B0FA0675D4B9D3E8B12AB Class:StaticMeshActor Name:StaticMeshActor_56 SpatiallyLoaded:true Bounds:IsValid=true, Min=(X=110.000 Y=2700.000 Z=0.000), Max=(X=210.000 Y=2800.000 Z=200.000) RuntimeGrid:None EditorOnly:false LevelBoundsRelevant:true HLODRelevant:true FolderPath:Block03 FolderGuid:8CD3949449A9ED1D3F209CA69A64B60F Parent:00000000000000000000000000000000
   |      - Guid:C768943D43B1D4FCC4C0F098EBF7CAC9 Class:StaticMeshActor Name:StaticMeshActor_36 SpatiallyLoaded:true Bounds:IsValid=true, Min=(X=0.000 Y=0.000 Z=0.000), Max=(X=3000.000 Y=100.000 Z=400.000) RuntimeGrid:None EditorOnly:false LevelBoundsRelevant:true HLODRelevant:true FolderPath:Playground FolderGuid:8CD33C9A4E75AD59B95486AC740693D6 Parent:00000000000000000000000000000000
   |      - Guid:D6CAE45C4E23DD1723795E8792894597 Class:StaticMeshActor Name:StaticMeshActor_54 SpatiallyLoaded:true Bounds:IsValid=true, Min=(X=110.000 Y=2600.000 Z=0.000), Max=(X=210.000 Y=2700.000 Z=200.000) RuntimeGrid:None EditorOnly:false LevelBoundsRelevant:true HLODRelevant:true FolderPath:Block03 FolderGuid:8CD3949449A9ED1D3F209CA69A64B60F Parent:00000000000000000000000000000000
   |      - Guid:E7C88B004DFFF4BE08155AB223A0EF2C Class:SkyAtmosphere Name:SkyAtmosphere_1 SpatiallyLoaded:false Bounds:IsValid=true, Min=(X=0.000 Y=0.000 Z=1020.000), Max=(X=0.000 Y=0.000 Z=1020.000) RuntimeGrid:None EditorOnly:false LevelBoundsRelevant:false HLODRelevant:false FolderPath:Lighting FolderGuid:08A10B054C95868C663DE39EE4343813 Parent:00000000000000000000000000000000
   |      - Guid:ECF7DFF54DE28214A01D249B1B1CA773 Class:StaticMeshActor Name:StaticMeshActor_42 SpatiallyLoaded:true Bounds:IsValid=true, Min=(X=-0.000 Y=100.000 Z=0.000), Max=(X=100.000 Y=3400.000 Z=400.000) RuntimeGrid:None EditorOnly:false LevelBoundsRelevant:true HLODRelevant:true FolderPath:Playground FolderGuid:8CD33C9A4E75AD59B95486AC740693D6 Parent:00000000000000000000000000000000
   |      - Guid:ED634735430DB9B4198DF4A9A188273B Class:StaticMeshActor Name:StaticMeshActor_61 SpatiallyLoaded:true Bounds:IsValid=true, Min=(X=2200.000 Y=500.000 Z=0.000), Max=(X=2400.000 Y=700.000 Z=100.000) RuntimeGrid:None EditorOnly:false LevelBoundsRelevant:true HLODRelevant:true FolderPath:Cylinder FolderGuid:ECA4956E419DA4E5BAB7F389537BCB14 Parent:00000000000000000000000000000000
   |      - Guid:F273828D468DD479CDB07EBF9F6EBA68 Class:StaticMeshActor Name:StaticMeshActor_47 SpatiallyLoaded:true Bounds:IsValid=true, Min=(X=1800.000 Y=1700.000 Z=100.000), Max=(X=2000.000 Y=2100.000 Z=200.000) RuntimeGrid:None EditorOnly:false LevelBoundsRelevant:true HLODRelevant:true FolderPath:Block01 FolderGuid:98087B8444A89373CC4763B3845E270A Parent:00000000000000000000000000000000
   |      - Guid:F3E47B9F4FC4B10E46CD5B9AC707EEA7 Class:NavMeshBoundsVolume Name:NavMeshBoundsVolume_UAID_B42E99BACA7D8D8101_2141992200 SpatiallyLoaded:false Bounds:IsValid=true, Min=(X=-314.822 Y=-381.004 Z=-470.313), Max=(X=3685.178 Y=3618.996 Z=529.687) RuntimeGrid:None EditorOnly:false LevelBoundsRelevant:false HLODRelevant:false FolderPath:None FolderGuid:00000000000000000000000000000000 Parent:00000000000000000000000000000000
   |      - Guid:F6974391454BE3281D0A9AAB775EBFF6 Class:StaticMeshActor Name:StaticMeshActor_43 SpatiallyLoaded:true Bounds:IsValid=true, Min=(X=2900.000 Y=100.000 Z=0.000), Max=(X=3000.000 Y=3400.000 Z=400.000) RuntimeGrid:None EditorOnly:false LevelBoundsRelevant:true HLODRelevant:true FolderPath:Playground FolderGuid:8CD33C9A4E75AD59B95486AC740693D6 Parent:00000000000000000000000000000000
   |      - Guid:FC2659D1462E0C2787253D85D4D3D619 Class:StaticMeshActor Name:StaticMeshActor_37 SpatiallyLoaded:true Bounds:IsValid=true, Min=(X=0.000 Y=3400.000 Z=0.000), Max=(X=3000.000 Y=3500.000 Z=400.000) RuntimeGrid:None EditorOnly:false LevelBoundsRelevant:true HLODRelevant:true FolderPath:Playground FolderGuid:8CD33C9A4E75AD59B95486AC740693D6 Parent:00000000000000000000000000000000
